<?php

$modelName = $this->Helpcontent->name;

// Process disable/enable
$this->doGeneralAction($modelName);

// create breadcrumb
$pageTitle = __('Help content list');
$this->Breadcrumb->setTitle($pageTitle)
        ->add(array(
            'name' => $pageTitle,
        ));

// create search form
$this->SearchForm->setModelName($modelName)
        ->setAttribute('type', 'get')
        ->addElement(array(
            'id' => 'title',
            'label' => __('Title'),
        ))
        ->addElement(array(
            'id' => 'disable',
            'label' => __('Status'),
            'options' => Configure::read('Config.searchStatus'),
            'empty' => Configure::read('Config.StrAll'),
        ))
        ->addElement(array(
            'id' => 'sort',
            'label' => __('Sort'),
            'options' => array(
                'id-asc' => __('ID Asc'),
                'id-desc' => __('ID Desc'),
                'title-asc' => __('Title Asc'),
                'title-desc' => __('Title Desc'),
            ),
            'empty' => Configure::read('Config.StrChooseOne'),
        ))
        ->addElement(array(
            'id' => 'limit',
            'label' => __('Limit'),
            'options' => Configure::read('Config.searchPageSize'),
        ))
        ->addElement(array(
            'type' => 'submit',
            'value' => __('Search'),
            'class' => 'btn btn-primary pull-right',
        ));

// create data table
$param = $this->getParams(array('page' => 1, 'limit' => Configure::read('Config.pageSize')));
list($total, $data) = Api::call(Configure::read('API.url_helpcontents_list'), $param, false, array(0, array()));
$this->Common->handleException(Api::getError());
$this->set('total', $total);
$this->set('limit', $param['limit']);

$this->SimpleTable->addColumn(array(
            'id' => 'item',
            'name' => 'items[]',
            'type' => 'checkbox',
            'value' => '{id}',
            'width' => '20'
        ))
        ->addColumn(array(
            'id' => 'id',
            'type' => 'link',
            'title' => __('ID'),
            'href' => '/' . $this->controller . '/update/{id}',
            'width' => '10'
        ))
        ->addColumn(array(
            'id' => 'title',
            'type' => 'link',
            'title' => __('Title'),
            'href' => '/' . $this->controller . '/update/{id}',
        ))
        ->addColumn(array(
            'id' => 'disable',
            'type' => 'checkbox',
            'title' => __('Status'),
            'toggle' => true,
            'rules' => array(
                '0' => 'checked',
                '1' => ''
            ),
            'empty' => 0,
            'width' => 90,
        ))
        ->setDataset($data)
        ->addButton(array(
            'type' => 'submit',
            'value' => __('Add new'),
            'class' => 'btn btn-primary btn-addnew',
        ))
        ->addButton(array(
            'type' => 'submit',
            'value' => __('Disable'),
            'class' => 'btn btn-primary btn-disable',
        ))
        ->addButton(array(
            'type' => 'submit',
            'value' => __('Enable'),
            'class' => 'btn btn-primary btn-enable',
        ));

