<?php

$modelName = $this->Presetcomment->name;

// Process disable/enable
$this->doGeneralAction($modelName);

// create breadcrumb
$pageTitle = __('Presetcomment list');
$this->Breadcrumb->setTitle($pageTitle)
        ->add(array(
            'name' => $pageTitle,
        ));

// create search form
$this->SearchForm->setModelName($modelName)
        ->setAttribute('type', 'get')
        ->addElement(array(
            'id' => 'comments',
            'label' => __('Comments')
        ))
        ->addElement(array(
            'id' => 'sort',
            'label' => __('Sort'),
            'options' => array(
                'id-asc' => __('ID Asc'),
                'id-desc' => __('ID Desc'),
                'comments-asc' => __('Comments Asc'),
                'comments-desc' => __('Comments Desc'),
            ),
            'empty' => Configure::read('Config.StrChooseOne'),
        ))
        ->addElement(array(
            'type' => 'submit',
            'value' => __('Search'),
            'class' => 'btn btn-primary pull-right',
        ));

// create data table
$param = $this->getParams(array('page' => 1, 'limit' => Configure::read('Config.pageSize')));
list($total, $data) = Api::call(Configure::read('API.url_presetcomments_list'), $param);
$this->set('total', $total);
$this->set('limit', $param['limit']);
$this->SimpleTable->addColumn(array(
            'id' => 'item',
            'name' => 'items[]',
            'type' => 'checkbox',
            'value' => '{id}',
            'width' => '20'
        ))
        ->addColumn(array(
            'id' => 'id',
            'type' => 'link',
            'title' => __('Id'),
            'href' => '/' . $this->controller . '/update/{id}',
            'width' => '80'
        ))
        ->addColumn(array(
            'id' => 'comments',
            'type' => 'link',
            'title' => __('Comments'),
            'href' => '/' . $this->controller . '/update/{id}',
        ))
        ->setDataset($data)
        ->addButton(array(
            'type' => 'submit',
            'value' => __('Add new'),
            'class' => 'btn btn-primary btn-addnew',
        ));

